----------------------------------------
Begin Torque Prologue on nid25351
at Sat Aug 16 08:37:43 CDT 2014
Job Id:			1086869.nid11293
Username:		aake
Group:			PRAC_jnv
Job name:		a2a
Requested resources:	neednodes=504:ppn=32:xe,nodes=504:ppn=32:xe,walltime=00:15:00
Queue:			normal
Account:		jnv
End Torque Prologue:  0.050 elapsed
----------------------------------------
Warning: no access to tty (Bad file descriptor).
Thus no job control in this shell.
Sat Aug 16 15:37:44 CEST 2014
Currently Loaded Modulefiles:
  1) modules/3.2.6.7
  2) nodestat/2.2-1.0402.45287.1.2.gem
  3) sdb/1.0-1.0402.46896.4.18.gem
  4) MySQL/5.0.64-1.0000.7096.23.1
  5) lustre-cray_gem_s/1.8.6_2.6.32.59_0.7.1_1.0402.7496.5.1-1.0402.47176.8.11
  6) udreg/2.3.2-1.0402.7546.1.5.gem
  7) ugni/5.0-1.0402.7551.1.10.gem
  8) gni-headers/2.1-1.0402.7541.1.5.gem
  9) dmapp/4.0.1-1.0402.7784.4.1.gem
 10) xpmem/0.1-2.0402.45248.1.5.gem
 11) hss-llm/7.1.0
 12) Base-opts/1.0.2-1.0402.45269.1.1.gem
 13) craype-network-gemini
 14) xt-asyncpe/5.24
 15) cce/8.2.2
 16) cray-libsci/12.1.3
 17) pmi/5.0.1-1.0000.9799.94.9.gem
 18) rca/1.0.0-2.0402.47290.7.1.gem
 19) atp/1.7.1
 20) PrgEnv-cray/4.2.34
 21) cray-mpich/6.2.0
 22) craype-interlagos
 23) torque/4.2.8
 24) moab/7.2.8-2014052016-4286b3ee-b7-SUSE11
 25) altd/altd
 26) scripts
 27) user-paths
PBS_O_QUEUE=normal
PBS_O_HOME=/u/sciteam/aake
PBS_O_LOGNAME=aake
PBS_O_PATH=/u/sciteam/aake/software/itt/idl81/bin:/u/sciteam/aake/bin:/u/sciteam/aake/bin/x86_64:/u/sciteam/aake/software/itt/idl81/bin:/u/sciteam/aake/bin:/u/sciteam/aake/bin/x86_64-suse-linux:/sw/admin/scripts:/sw/user/scripts:/sw/xe/altd/bin:/usr/local/gsi-openssh-6.2p2-2/bin:/opt/java/jdk1.7.0_45/bin:/usr/local/globus-5.2.4/bin:/usr/local/globus-5.2.4/sbin:/opt/moab/7.2.8/bin:/opt/moab/7.2.8/sbin:/opt/torque/4.2.8/sbin:/opt/torque/4.2.8/bin:/opt/cray/eslogin/eswrap/1.0.12/bin:/opt/cray/atp/1.7.1/bin:/opt/cray/rca/1.0.0-2.0402.47290.7.1.gem/bin:/opt/cray/switch/1.0-1.0402.45840.2.63.gem/bin:/opt/cray/shared-root/1.0-1.0402.46893.3.17.gem/bin:/opt/cray/pdsh/2.26-1.0402.45278.1.1.gem/bin:/opt/cray/nodehealth/5.1-1.0402.45895.3.76.gem/bin:/opt/cray/lbcd/2.1-1.0402.45245.1.2.gem/bin:/opt/cray/hosts/1.0-1.0402.45251.1.86.gem/bin:/opt/cray/configuration/1.0-1.0402.45284.1.2.gem/bin:/opt/cray/ccm/default/sbin:/opt/cray/ccm/default/bin:/opt/cray/audit/1.0.0-1.0402.45273.1.86.gem/bin:/opt/cray/csa/3.0.0-1_2.0402.45268.1.90.gem/sbin:/opt/cray/csa/3.0.0-1_2.0402.45268.1.90.gem/bin:/opt/cray/job/1.5.5-0.1_2.0402.45272.1.5.gem/bin:/opt/cray/xpmem/0.1-2.0402.45248.1.5.gem/bin:/opt/cray/dmapp/4.0.1-1.0402.7784.4.1.gem/bin:/opt/cray/pmi/5.0.1-1.0000.9799.94.9.gem/bin:/opt/cray/ugni/5.0-1.0402.7551.1.10.gem/bin:/opt/cray/udreg/2.3.2-1.0402.7546.1.5.gem/bin:/opt/cray/cce/8.2.2/cray-binutils/x86_64-unknown-linux-gnu/bin:/opt/cray/cce/8.2.2/craylibs/x86-64/bin:/opt/cray/cce/8.2.2/cftn/bin:/opt/cray/cce/8.2.2/CC/bin:/opt/cray/xt-asyncpe/5.24/bin:/opt/modules/3.2.6.7/bin:/usr/local/bin:/usr/bin:/bin:/usr/bin/X11:/usr/X11R6/bin:/usr/games:/usr/lib64/jvm/jre/bin:/usr/lib/mit/bin:/usr/lib/mit/sbin:/sbin:/usr/sbin:/opt/cray/bin:/usr/lib/mit/bin:/usr/lib/mit/sbin:/sbin:/usr/sbin:./
PBS_O_MAIL=/var/mail/aake
PBS_O_SHELL=/bin/bash
PBS_O_TZ=Europe/Copenhagen
PBS_O_LANG=da_DK.UTF-8
PBS_O_SUBMIT_FILTER=/usr/local/sbin/torque_submitfilter
PBS_O_WORKDIR=/mnt/c/scratch/sciteam/aake/tmp
PBS_O_HOST=h2ologin2.ncsa.illinois.edu
PBS_O_SERVER=moab1
HOME=/u/sciteam/aake
LOGNAME=aake
PBS_JOBNAME=a2a
PBS_JOBID=1086869.nid11293
PBS_QUEUE=normal
SHELL=/bin/csh
USER=aake
PBS_JOBCOOKIE=F209CED7B2FCE982A738643BFA00C359
PBS_NODENUM=0
PBS_TASKNUM=1
PBS_MOMPORT=15003
PBS_NODEFILE=/var/spool/torque/aux//1086869.nid11293
PBS_GPUFILE=/var/spool/torque/aux//1086869.nid11293gpu
PBS_MICFILE=/var/spool/torque/aux//1086869.nid11293mic
PBS_WALLTIME=900
PBS_NUM_NODES=504
PBS_NUM_PPN=32
PBS_VERSION=TORQUE-4.2.8
PBS_VNODENUM=0
PBS_NP=16128
PBS_ENVIRONMENT=PBS_BATCH
ENVIRONMENT=BATCH
HOSTTYPE=x86_64-linux
VENDOR=suse
OSTYPE=linux
MACHTYPE=x86_64
SHLVL=2
PWD=/mnt/c/scratch/sciteam/aake/tmp
GROUP=PRAC_jnv
HOST=bw
CSHEDIT=emacs
MAIL=/var/spool/mail/aake
CPU=x86_64
HOSTNAME=linux.site
PATH=/u/sciteam/aake/software/itt/idl81/bin:/u/sciteam/aake/bin:/u/sciteam/aake/bin/x86_64:/u/sciteam/aake/software/itt/idl81/bin:/u/sciteam/aake/bin:/u/sciteam/aake/bin/x86_64-suse-linux:/sw/admin/scripts:/sw/user/scripts:/sw/xe/altd/bin:/opt/moab/7.2.8/bin:/opt/moab/7.2.8/sbin:/opt/torque/4.2.8/sbin:/opt/torque/4.2.8/bin:/opt/cray/atp/1.7.1/bin:/opt/cray/rca/1.0.0-2.0402.47290.7.1.gem/bin:/opt/cray/pmi/5.0.1-1.0000.9799.94.9.gem/bin:/opt/cray/cce/8.2.2/cray-binutils/x86_64-unknown-linux-gnu/bin:/opt/cray/cce/8.2.2/craylibs/x86-64/bin:/opt/cray/cce/8.2.2/cftn/bin:/opt/cray/cce/8.2.2/CC/bin:/opt/cray/xt-asyncpe/5.24/bin:/opt/cray/llm/default/bin:/opt/cray/llm/default/etc:/opt/cray/xpmem/0.1-2.0402.45248.1.5.gem/bin:/opt/cray/dmapp/4.0.1-1.0402.7784.4.1.gem/bin:/opt/cray/ugni/5.0-1.0402.7551.1.10.gem/bin:/opt/cray/udreg/2.3.2-1.0402.7546.1.5.gem/bin:/opt/cray/lustre-cray_gem_s/1.8.6_2.6.32.59_0.7.1_1.0402.7496.5.1-1.0402.47176.8.11/sbin:/opt/cray/lustre-cray_gem_s/1.8.6_2.6.32.59_0.7.1_1.0402.7496.5.1-1.0402.47176.8.11/bin:/opt/cray/MySQL/5.0.64-1.0000.7096.23.1/sbin:/opt/cray/MySQL/5.0.64-1.0000.7096.23.1/bin:/opt/cray/sdb/1.0-1.0402.46896.4.18.gem/bin:/opt/cray/nodestat/2.2-1.0402.45287.1.2.gem/bin:/opt/modules/3.2.6.7/bin:/u/sciteam/aake/bin:/usr/bin:/bin:/usr/local/bin:/usr/bin/X11:/usr/X11R6/bin:/usr/games:/usr/lib/mit/bin:/usr/lib/mit/sbin:.:/usr/lib/qt3/bin:/opt/cray/bin:./:./
INPUTRC=/etc/inputrc
LESS=-M -I
LESSOPEN=lessopen.sh %s
LESSCLOSE=lessclose.sh %s %s
LESS_ADVANCED_PREPROCESSOR=no
LESSKEY=/etc/lesskey.bin
PAGER=less
MORE=-sl
MINICOM=-c on
MANPATH=/sw/user/man:/opt/moab/7.2.8/share/man/:/opt/torque/4.2.8/share/man:/opt/cray/mpt/6.2.0/gni/man/mpich2:/opt/cray/atp/1.7.1/man:/opt/cray/libsci/12.1.3/man:/opt/cray/cce/8.2.2/man:/opt/cray/cce/8.2.2/craylibs/man:/opt/cray/cce/8.2.2/CC/man:/opt/cray/cce/8.2.2/cftn/man:/opt/cray/xt-asyncpe/5.24/man:/opt/cray/llm/default/man:/opt/cray/lustre-cray_gem_s/1.8.6_2.6.32.59_0.7.1_1.0402.7496.5.1-1.0402.47176.8.11/man:/opt/modules/3.2.6.7/man:/usr/share/man:/usr/local/man:/usr/man:/opt/cray/share/man:/u/sciteam/aake/man
INFODIR=/usr/local/info:/usr/share/info:/usr/info
INFOPATH=/usr/local/info:/usr/share/info:/usr/info
XKEYSYMDB=/usr/share/X11/XKeysymDB
XNLSPATH=/usr/share/X11/nls
COLORTERM=1
JAVA_BINDIR=/usr/lib64/jvm/jre/bin
JAVA_ROOT=/usr/lib64/jvm/jre
JAVA_HOME=/usr/lib64/jvm/jre
JRE_HOME=/usr/lib64/jvm/jre
CVS_RSH=ssh
XCURSOR_THEME=crystalwhite
QT_HOME_DIR=/usr/share/desktop-data
LANG=da_DK.UTF-8
FROM_HEADER=
NNTPSERVER=news
PYTHONSTARTUP=/etc/pythonstart
QTDIR=/usr/lib/qt3
XDG_DATA_DIRS=/usr/local/share:/usr/share:/etc/opt/kde3/share:/opt/cray/share:/opt/kde3/share:/opt/platform_mpi/share:/usr/share/gnome/help
XDG_CONFIG_DIRS=/etc/xdg
G_BROKEN_FILENAMES=1
G_FILENAME_ENCODING=@locale,UTF-8,ISO-8859-1,CP1252
ENV=/etc/bash.bashrc
CSHRCREAD=true
TERM=linux
LS_COLORS=no=00:fi=00:di=01;34:ln=00;36:pi=40;33:so=01;35:do=01;35:bd=40;33;01:cd=40;33;01:or=41;33;01:ex=00;32:*.cmd=00;32:*.exe=01;32:*.com=01;32:*.bat=01;32:*.btm=01;32:*.dll=01;32:*.tar=00;31:*.tbz=00;31:*.tgz=00;31:*.rpm=00;31:*.deb=00;31:*.arj=00;31:*.taz=00;31:*.lzh=00;31:*.lzma=00;31:*.zip=00;31:*.zoo=00;31:*.z=00;31:*.Z=00;31:*.gz=00;31:*.bz2=00;31:*.tb2=00;31:*.tz2=00;31:*.tbz2=00;31:*.avi=01;35:*.bmp=01;35:*.fli=01;35:*.gif=01;35:*.jpg=01;35:*.jpeg=01;35:*.mng=01;35:*.mov=01;35:*.mpg=01;35:*.pcx=01;35:*.pbm=01;35:*.pgm=01;35:*.png=01;35:*.ppm=01;35:*.tga=01;35:*.tif=01;35:*.xbm=01;35:*.xpm=01;35:*.dl=01;35:*.gl=01;35:*.wmv=01;35:*.aiff=00;32:*.au=00;32:*.mid=00;32:*.mp3=00;32:*.ogg=00;32:*.voc=00;32:*.wav=00;32:
LS_OPTIONS=-N --color=none -T 0
MODULE_VERSION=3.2.6.7
MODULE_VERSION_STACK=3.2.6.7
MODULESHOME=/opt/modules/3.2.6.7
MODULEPATH=/sw/xe/modulefiles:/opt/cray/xt-asyncpe/default/modulefiles:/opt/cray/gem/modulefiles:/opt/cray/modulefiles:/opt/modulefiles
CRAY_SITE_LIST_DIR=/etc/opt/cray/modules
USERMODULES=/opt/modules/3.2.6.7/init/.usermodules:PrgEnv-cray:PrgEnv-gnu:PrgEnv-intel:PrgEnv-pathscale:PrgEnv-pgi:acml:alps:apprentice2:atp:blcr:cce:chapel:cray-fftw:cray-libsci:cray-mpich2:cray-petsc:cray-petsc-complex:cray-shmem:cray-tpsl:cray-trilinos:craypat:craype:cudatoolkit:ddt:fftw:ga:gcc:hdf5:hdf5-parallel:intel:iobuf:java:lgdb:libfast:libsci_acc:mpich1:mrnet:netcdf:netcdf-hdf5parallel:netcdf-nofsync:netcdf-nofsync-hdf5parallel:ntk:onesided:papi:parallel-netcdf:pathscale:perftools:petsc:petsc-complex:pgi:pmi:stat:totalview:tpsl:trilinos:xt-asyncpe:xt-craypat:xt-lgdb:xt-libsci:xt-mpich2:xt-mpt:xt-papi:xt-shmem:xt-totalview
TARGETMODULES=/opt/modules/3.2.6.7/init/.targetmodules:craype-abudhabi:craype-abudhabi-cu:craype-accel-nvidia20:craype-accel-nvidia30:craype-accel-nvidia35:craype-barcelona:craype-hugepages128K:craype-hugepages128M:craype-hugepages16M:craype-hugepages256M:craype-hugepages2M:craype-hugepages512K:craype-hugepages512M:craype-hugepages64M:craype-hugepages8M:craype-interlagos:craype-interlagos-cu:craype-istanbul:craype-ivybridge:craype-knc:craype-mc12:craype-mc8:craype-network-aries:craype-network-gemini:craype-network-seastar:craype-sandybridge:craype-shanghai:craype-target-compute_node:craype-target-local_host:craype-target-native:craype-target-petest:craype-xeon:xtpe-barcelona:xtpe-interlagos:xtpe-interlagos-cu:xtpe-istanbul:xtpe-mc12:xtpe-mc8:xtpe-network-gemini:xtpe-network-seastar:xtpe-shanghai:xtpe-target-native:xtpe-xeon
LIBRARYMODULES=/opt/modules/3.2.6.7/init/.librarymodules:acml:alps:apprentice2:atp:cray-fftw:cray-libsci:cray-mpich2:cray-petsc:cray-petsc-complex:cray-shmem:cray-tpsl:cray-trilinos:cudatoolkit:fftw:ga:hdf5:hdf5-parallel:iobuf:lgdb:libfast:libsci_acc:mpich1:mpich2:mrnet:netcdf:netcdf-hdf5parallel:netcdf-nofsync:netcdf-nofsync-hdf5parallel:ntk:onesided:papi:parallel-netcdf:petsc:petsc-complex:pmi:shmem:tpsl:trilinos:xt-atp:xt-lgdb:xt-libsci:xt-mpt:xt-papi
PRGENVMODULES=/opt/modules/3.2.6.7/init/.prgenvmodules:PrgEnv-cray:PrgEnv-gnu:PrgEnv-intel:PrgEnv-pathscale:PrgEnv-pgi
TOOLMODULES=/opt/modules/3.2.6.7/init/.toolmodules:apprentice:apprentice2:atp:chapel:craypat:ddt:gdb:iobuf:mrnet:papi:perftools:stat:totalview:xt-craypat:xt-lgdb:xt-papi:xt-totalview
LOADEDMODULES=modules/3.2.6.7:nodestat/2.2-1.0402.45287.1.2.gem:sdb/1.0-1.0402.46896.4.18.gem:MySQL/5.0.64-1.0000.7096.23.1:lustre-cray_gem_s/1.8.6_2.6.32.59_0.7.1_1.0402.7496.5.1-1.0402.47176.8.11:udreg/2.3.2-1.0402.7546.1.5.gem:ugni/5.0-1.0402.7551.1.10.gem:gni-headers/2.1-1.0402.7541.1.5.gem:dmapp/4.0.1-1.0402.7784.4.1.gem:xpmem/0.1-2.0402.45248.1.5.gem:hss-llm/7.1.0:Base-opts/1.0.2-1.0402.45269.1.1.gem:craype-network-gemini:xt-asyncpe/5.24:cce/8.2.2:cray-libsci/12.1.3:pmi/5.0.1-1.0000.9799.94.9.gem:rca/1.0.0-2.0402.47290.7.1.gem:atp/1.7.1:PrgEnv-cray/4.2.34:cray-mpich/6.2.0:craype-interlagos:torque/4.2.8:moab/7.2.8-2014052016-4286b3ee-b7-SUSE11:altd/altd:scripts:user-paths
CRAY_DMAPP_INCLUDE_OPTS=-I/opt/cray/dmapp/4.0.1-1.0402.7784.4.1.gem/include -I/opt/cray/gni-headers/2.1-1.0402.7541.1.5.gem/include  
CRAY_DMAPP_POST_LINK_OPTS=-L/opt/cray/dmapp/4.0.1-1.0402.7784.4.1.gem/lib64
CRAY_GNI_HEADERS_INCLUDE_OPTS=-I/opt/cray/gni-headers/2.1-1.0402.7541.1.5.gem/include
CRAY_LD_LIBRARY_PATH=/opt/cray/mpt/6.2.0/gni/mpich2-cray/81/lib:/opt/cray/rca/1.0.0-2.0402.47290.7.1.gem/lib64:/opt/cray/pmi/5.0.1-1.0000.9799.94.9.gem/lib64:/opt/cray/libsci/12.1.3/CRAY/81/x86_64/lib:/opt/cray/cce/8.2.2/CC/x86-64/lib/x86-64:/opt/cray/cce/8.2.2/craylibs/x86-64:/opt/cray/xpmem/0.1-2.0402.45248.1.5.gem/lib64:/opt/cray/dmapp/4.0.1-1.0402.7784.4.1.gem/lib64:/opt/cray/ugni/5.0-1.0402.7551.1.10.gem/lib64:/opt/cray/udreg/2.3.2-1.0402.7546.1.5.gem/lib64
CRAY_LLM_DIR=/opt/cray/llm/default
CRAY_UDREG_INCLUDE_OPTS=-I/opt/cray/udreg/2.3.2-1.0402.7546.1.5.gem/include
CRAY_UDREG_POST_LINK_OPTS=-L/opt/cray/udreg/2.3.2-1.0402.7546.1.5.gem/lib64
CRAY_UGNI_INCLUDE_OPTS=-I/opt/cray/ugni/5.0-1.0402.7551.1.10.gem/include
CRAY_UGNI_POST_LINK_OPTS=-L/opt/cray/ugni/5.0-1.0402.7551.1.10.gem/lib64
CRAY_XPMEM_INCLUDE_OPTS=-I/opt/cray/xpmem/0.1-2.0402.45248.1.5.gem/include
CRAY_XPMEM_POST_LINK_OPTS=-L/opt/cray/xpmem/0.1-2.0402.45248.1.5.gem/lib64
PE_PRODUCT_LIST=CRAYPE_INTERLAGOS:CRAY_MPICH2:ATP:CRAY_RCA:CRAY_PMI:CRAY_LIBSCI:ASYNCPE:CRAY:CRAY_LLM:CRAY_XPMEM:CRAY_DMAPP:CRAY_UGNI:CRAY_UDREG
PKG_CONFIG_PATH=/opt/cray/rca/1.0.0-2.0402.47290.7.1.gem/lib64/pkgconfig:/opt/cray/pmi/5.0.1-1.0000.9799.94.9.gem/lib64/pkgconfig:/opt/cray/xpmem/0.1-2.0402.45248.1.5.gem/lib64/pkgconfig:/opt/cray/dmapp/4.0.1-1.0402.7784.4.1.gem/lib64/pkgconfig:/opt/cray/gni-headers/2.1-1.0402.7541.1.5.gem/lib64/pkgconfig:/opt/cray/ugni/5.0-1.0402.7551.1.10.gem/lib64/pkgconfig:/opt/cray/udreg/2.3.2-1.0402.7546.1.5.gem/lib64/pkgconfig:/opt/cray/MySQL/5.0.64-1.0000.7096.23.1/lib64/pkgconfig
XTPE_NETWORK_TARGET=gemini
RCLOCAL_BASEOPTS=true
PROFILEREAD=true
CRAYPE_NETWORK_TARGET=gemini
ASSEMBLER_X86_64=/opt/cray/cce/8.2.2/cray-binutils/x86_64-unknown-linux-gnu/bin/as
ASYNCPE_DIR=/opt/cray/xt-asyncpe/5.24
ASYNCPE_VERSION=5.24
ATP_HOME=/opt/cray/atp/1.7.1
ATP_MRNET_COMM_PATH=/opt/cray/atp/1.7.1/bin/atp_mrnet_commnode_wrapper
ATP_POST_LINK_OPTS=-Wl,-L/opt/cray/atp/1.7.1/lib/ -Wl,--undefined=_ATP_Data_Globals -Wl,--undefined=__atpHandlerInstall -Wl,-lAtpSigHCommData -Wl,-lAtpSigHandler
BUILD_OPTS=/opt/cray/xt-asyncpe/5.24/bin/build-opts
CC_X86_64=/opt/cray/cce/8.2.2/CC/x86-64
CRAYLIBS_X86_64=/opt/cray/cce/8.2.2/craylibs/x86-64
CRAYLMD_LICENSE_FILE=/opt/cray/cce/cce.lic
CRAY_BINUTILS_BIN=/opt/cray/cce/8.2.2/cray-binutils/x86_64-unknown-linux-gnu/bin
CRAY_BINUTILS_ROOT=/opt/cray/cce/8.2.2/cray-binutils
CRAY_BINUTILS_VERSION=/opt/cray/cce/8.2.2
CRAY_CC_VERSION=8.2.2
CRAY_FTN_VERSION=8.2.2
CRAY_LIBSCI=81
CRAY_LIBSCI_BASE_DIR=/opt/cray/libsci/12.1.3
CRAY_LIBSCI_DIR=/opt/cray/libsci/12.1.3
CRAY_LIBSCI_PREFIX_DIR=/opt/cray/libsci/12.1.3/CRAY/81/x86_64
CRAY_LIBSCI_VERSION=12.1.30
CRAY_PE_TARGET=x86-64
CRAY_PMI_INCLUDE_OPTS=-I/opt/cray/pmi/5.0.1-1.0000.9799.94.9.gem/include
CRAY_PMI_POST_LINK_OPTS=-L/opt/cray/pmi/5.0.1-1.0000.9799.94.9.gem/lib64
CRAY_PRE_COMPILE_OPTS=-hnetwork=gemini
CRAY_PRGENVCRAY=loaded
CRAY_RCA_INCLUDE_OPTS=-I/opt/cray/rca/1.0.0-2.0402.47290.7.1.gem/include -I/opt/cray-hss-devel/7.1.0/include -I/opt/cray/krca/1.0.0-2.0402.46083.4.47.gem/include  
CRAY_RCA_POST_LINK_OPTS=-L/opt/cray/rca/1.0.0-2.0402.47290.7.1.gem/lib64 -lrca  
DMAPP_ABORT_ON_ERROR=1
FFTW_SYSTEM_WISDOM_DIR=/opt/cray/libsci/12.1.3
FORTRAN_SYSTEM_MODULE_NAMES=ftn_lib_definitions
FTN_X86_64=/opt/cray/cce/8.2.2/cftn/x86-64
GCC_X86_64=/opt/gcc/4.4.4/snos
GNU47_LIBSCI=47
GNU48_LIBSCI=48
INCLUDE_PATH_X86_64=/opt/cray/cce/8.2.2/craylibs/x86-64/include
INTEL_LIBSCI=130
LIBSCI_BASE_DIR=/opt/cray/libsci/12.1.3
LIBSCI_VERSION=12.1.30
LINKER_X86_64=/opt/cray/cce/8.2.2/cray-binutils/x86_64-unknown-linux-gnu/bin/ld
MPICH_ABORT_ON_ERROR=1
NLSPATH=/opt/cray/cce/8.2.2/CC/x86-64/nls/En/%N.cat:/opt/cray/cce/8.2.2/craylibs/x86-64/nls/En/%N.cat:/opt/cray/cce/8.2.2/cftn/x86-64/nls/En/%N.cat
PE_ENV=CRAY
PE_LEVEL=8.2
PGI_LIBSCI=121
SHMEM_ABORT_ON_ERROR=1
XTOS_VERSION=4.2.34
_LMFILES_000=/opt/modulefiles/modules/3.2.6.7:/opt/cray/gem/modulefiles/nodestat/2.2-1.0402.45287.1.2.gem:/opt/cray/gem/modulefiles/sdb/1.0-1.0402.46896.4.18.gem:/opt/cray/modulefiles/MySQL/5.0.64-1.0000.7096.23.1:/opt/cray/modulefiles/lustre-cray_gem_s/1.8.6_2.6.32.59_0.7.1_1.0402.7496.5.1-1.0402.47176.8.11:/opt/cray/gem/modulefiles/udreg/2.3.2-1.0402.7546.1.5.gem:/opt/cray/gem/modulefiles/ugni/5.0-1.0402.7551.1.10.gem:/opt/cray/gem/modulefiles/gni-headers/2.1-1.0402.7541.1.5.gem:/opt/cray/gem/modulefiles/dmapp/4.0.1-1.0402.7784.4.1.gem:/opt/cray/gem/modulefiles/xpmem/0.1-2.0402.45248.1.5.gem:/opt/modulefiles/hss-llm/7.1.0:/opt/modulefiles/Base-opts/1.0.2-1.0402.45269.1.1.gem:/opt/cray/xt-asyncpe/default/modulefiles/craype-network-gemini:/opt/modulefiles/xt-asyncpe/5.24:/opt/modulefiles/cce/8.2.2:/opt/cray/modulefiles/cray-libsci/12.1.3:/opt/cray/gem/modulefiles/pmi/5.0.1-1.0000.9799.94.9.gem:/opt/cray/gem/modulefiles/rca/1.0.0-2.0402.47290.7.1.gem:/opt/cray/modulefiles/atp/1.7.1:/opt/modulefiles/
_LMFILES_001=PrgEnv-cray/4.2.34:/opt/cray/modulefiles/cray-mpich/6.2.0:/opt/cray/xt-asyncpe/default/modulefiles/craype-interlagos:/opt/modulefiles/torque/4.2.8:/opt/modulefiles/moab/7.2.8-2014052016-4286b3ee-b7-SUSE11:/sw/xe/modulefiles/altd/altd:/sw/xe/modulefiles/scripts:/sw/xe/modulefiles/user-paths
RCLOCAL_PRGENV=true
CRAY_MPICH2=81
CRAY_MPICH2_BASEDIR=/opt/cray/mpt/6.2.0/gni
CRAY_MPICH2_DIR=/opt/cray/mpt/6.2.0/gni/mpich2-cray/81
CRAY_MPICH2_ROOTDIR=/opt/cray/mpt/6.2.0
CRAY_MPICH2_VER=6.2.0
INTEL_MPICH2=130
MPICH_DIR=/opt/cray/mpt/6.2.0/gni/mpich2-cray/81
PE_MPICH_ACC_NV_LIBS=
PE_MPICH_ACC_NV_LIBS_nv20=-lcudart
PE_MPICH_ACC_NV_LIBS_nv35=-lcudart
PE_MPICH_ACC_PKGCONFIG_VARIABLES=NV_LIBS_@accelerator@
PE_MPICH_TARGET_VAR_nvidia20=-lcudart
PE_MPICH_TARGET_VAR_nvidia35=-lcudart
PGI_MPICH2=121
CRAY_CPU_TARGET=interlagos
INTEL_PRE_COMPILE_OPTS= -msse3
PATHSCALE_PRE_COMPILE_OPTS= -march=barcelona
MOABHOMEDIR=/var/spool/moab
ALTD_ON=1
ALTD_PATH=/sw/xe/altd
ALTD_SELECT_OFF_USERS=
ALTD_SELECT_ON=0
ALTD_SELECT_USERS=jones,faheymr
ALTD_VERBOSE=0
ALT_LINKER=/sw/xe/altd/bin/ld
LM_LICENSE_FILE=1700@localhost
PELOCAL_PRGENV=true
TZ=Europe/Copenhagen
CVSROOT=:pserver:aake@comp.astro.ku.dk:/home/aake/cvs
PENCIL_HOME=/u/sciteam/aake/pencil-code
IDL_DIR=/u/sciteam/aake/software/itt/idl81
IDL_PATH=./idl:../idl:+~/idl:+~/stagger-code/idl:+/u/sciteam/aake/software/itt/idl81/lib:+/u/sciteam/aake/software/itt/idl81/examples:+~/codes/ramses/idl
IDL_STARTUP=/u/sciteam/aake/sys/idlrc
LC_TIME=C
LC_COLLATE=C
LC_MESSAGES=C
PE 0: MPICH processor detected:
PE 0:   AuthenticAMD (21:1:2) (family:model:stepping)
PE 0: MPICH environment settings:
PE 0:   MPICH_ENV_DISPLAY          = 1
PE 0:   MPICH_VERSION_DISPLAY      = 0
PE 0:   MPICH_ABORT_ON_ERROR       = 1
PE 0:   MPICH_CPUMASK_DISPLAY      = 0
PE 0:   MPICH_RANK_REORDER_METHOD  = 1
PE 0:   MPICH_RANK_REORDER_DISPLAY = 0
PE 0:   MPICH_MEMCPY_MEM_CHECK     = 0
PE 0:   MPICH_USE_SYSTEM_MEMCPY    = 1
PE 0:   MPICH_NO_BUFFER_ALIAS_CHECK= 0
PE 0:   MPICH_COLL_SYNC            = 0
PE 0:   MPICH_MSG_QUEUE_DBG        = 0
PE 0: MPICH/GPU environment settings:
PE 0:   MPICH_RDMA_ENABLED_CUDA    = 0
PE 0:   MPICH_G2G_PIPELINE         = 0
PE 0:   MPICH_NO_GPU_DIRECT        = 0
PE 0: MPICH/MPMD environment settings:
PE 0:   MPICH_DMAPP_APP_IS_WORLD   = 0
PE 0: MPICH/RMA environment settings:
PE 0:   MPICH_RMA_OVER_DMAPP       = 0
PE 0: MPICH/SMP environment settings:
PE 0:   MPICH_SMP_SINGLE_COPY_OFF  = 0
PE 0:   MPICH_SMP_SINGLE_COPY_SIZE = 8192
PE 0: MPICH/GNI environment settings:
PE 0:           MPICH_GNI_RECV_CQ_SIZE = 40960
PE 0:          MPICH_GNI_LOCAL_CQ_SIZE = 8192
PE 0:            MPICH_GNI_DEBUG_LEVEL = 0
PE 0:    MPICH_GNI_MAX_VSHORT_MSG_SIZE = 2000
PE 0:     MPICH_GNI_MAX_EAGER_MSG_SIZE = 8192
PE 0:               MPICH_GNI_NUM_BUFS = 64
PE 0:             MPICH_GNI_NUM_MBOXES = -1
PE 0:       MPICH_GNI_MBOXES_PER_BLOCK = 4096
PE 0:         MPICH_GNI_RDMA_THRESHOLD = 1024
PE 0:          MPICH_GNI_RCVCQ_PROCNUM = 1
PE 0:    MPICH_GNI_NDREG_ENTRIES(req.) = 113
PE 0:          MPICH_GNI_NDREG_MAXSIZE = 524288
PE 0:        MPICH_GNI_MALLOC_FALLBACK = 0
PE 0:          MPICH_GNI_NDREG_LAZYMEM = LAZY_ALL
PE 0:          MPICH_GNI_DMAPP_INTEROP = 1
PE 0:           MPICH_GNI_DYNAMIC_CONN = 1
PE 0:        MPICH_GNI_MAX_NUM_RETRIES = 16
PE 0:              MPICH_GNI_FORK_MODE = PARTCOPY
PE 0:         MPICH_GNI_MBOX_PLACEMENT = DEFAULT
PE 0:        MPICH_GNI_VC_MSG_PROTOCOL = MBOX
PE 0:      MPICH_GNI_BTE_MULTI_CHANNEL = 1
PE 0:           MPICH_GNI_LMT_GET_PATH = 1
PE 0:               MPICH_GNI_LMT_PATH = 1
PE 0:     MPICH_NEMESIS_ASYNC_PROGRESS = 0
PE 0: MPICH_GNI_ASYNC_PROGRESS_TIMEOUT = -1
PE 0:       MPICH_GNI_DATAGRAM_TIMEOUT = -1
PE 0:            MPICH_GNI_FMA_SHARING = 0
PE 0:          MPICH_GNI_USE_PCI_IOMMU = 0
PE 0:            MPICH_GNI_CQE_BACKOFF = 0
PE 0:    MPICH_GNI_USE_UNASSIGNED_CPUS = 1
PE 0:        MPICH_GNI_MEM_DEBUG_FNAME = 
PE 0: MPICH/COLLECTIVE environment settings:
PE 0:   MPICH_COLL_OPT_OFF         = 0
PE 0:   MPICH_COLL_BAL_INJECTION   = auto
PE 0:   MPICH_USE_DMAPP_COLL       = 0
PE 0:   MPICH_DMAPP_COLL_RADIX     = 64
PE 0:   MPICH_DMAPP_A2A_SHORT_MSG  = 4096
PE 0:   MPICH_DMAPP_A2A_USE_PUTS   = 0
PE 0:   MPICH_DMAPP_A2A_SYMBUF_SIZE= 258048
PE 0:   MPICH_BCAST_ONLY_TREE      = 1
PE 0:   MPICH_ALLTOALL_SHORT_MSG   = 32-2048
PE 0:   MPICH_ALLTOALLV_THROTTLE   = 1
PE 0:   MPICH_ALLGATHER_VSHORT_MSG = 1024-8192
PE 0:   MPICH_ALLGATHERV_VSHORT_MSG= 1024-8192
PE 0:   MPICH_GATHERV_SHORT_MSG    = 16384
PE 0:   MPICH_SCATTERV_SHORT_MSG   = 2048-8192
PE 0:   MPICH_SCATTERV_SYNCHRONOUS = 0
PE 0:   MPICH_ALLREDUCE_NO_SMP     = 0
PE 0:   MPICH_REDUCE_NO_SMP        = 0
PE 0: MPICH Thread Safety settings:
PE 0:   MPICH_MAX_THREAD_SAFETY    = serialized
PE 0:   rank 0 required = single, was provided = single
 Using Mpi_Issend/Irecv
 test_alltoallv: $Id: a2a.o1086869,v 1.1 2014/08/16 14:11:40 aake Exp $
 alltoallv: intrinsic, mpi_size, nword, wt, kB =  F   1008   1000  1.30E-02  4.00E+01
 alltoallv: intrinsic, mpi_size, nword, wt, kB =  F   1008  10000  1.60E-02  4.00E+02
 0.15939807891845703
 8.8097190856933594
 8.8098249435424805
 alltoall: intrinsic, mpi_size, nword, wt, MB, ok =  F   1008      1  8.81E+00  4.03E-03  T
 5.50985336303710937E-4
 4.45568561553955078E-2
 4.46538925170898437E-2
 alltoall: intrinsic, mpi_size, nword, wt, MB, ok =  F   1008     10  4.47E-02  4.03E-02  T
 Using MPI_Alltoall[v]
 test_alltoallv: $Id: a2a.o1086869,v 1.1 2014/08/16 14:11:40 aake Exp $
 alltoallv: intrinsic, mpi_size, nword, wt, kB =  T   1008   1000  7.43E-03  4.00E+01
 alltoallv: intrinsic, mpi_size, nword, wt, kB =  T   1008  10000  2.63E-02  4.00E+02
 alltoall: intrinsic, mpi_size, nword, wt, MB, ok =  T   1008      1  1.07E-02  4.03E-03  T
 alltoall: intrinsic, mpi_size, nword, wt, MB, ok =  T   1008     10  3.51E-03  4.03E-02  T
Application 5564450 resources: utime ~3353s, stime ~6554s, Rss ~13732, inblocks ~627639, outblocks ~900062
Sat Aug 16 15:37:57 CEST 2014
 Using Mpi_Issend/Irecv
 test_alltoallv: $Id: a2a.o1086869,v 1.1 2014/08/16 14:11:40 aake Exp $
 alltoallv: intrinsic, mpi_size, nword, wt, kB =  F   2016   1000  1.46E-02  4.00E+01
 alltoallv: intrinsic, mpi_size, nword, wt, kB =  F   2016  10000  8.08E-03  4.00E+02
 0.14342594146728516
 24.736532926559448
 24.736804008483887
 alltoall: intrinsic, mpi_size, nword, wt, MB, ok =  F   2016      1  2.47E+01  8.06E-03  T
 0.9039609432220459
 0.98972702026367187
 0.99014592170715332
 alltoall: intrinsic, mpi_size, nword, wt, MB, ok =  F   2016     10  9.90E-01  8.06E-02  T
 Using MPI_Alltoall[v]
 test_alltoallv: $Id: a2a.o1086869,v 1.1 2014/08/16 14:11:40 aake Exp $
 alltoallv: intrinsic, mpi_size, nword, wt, kB =  T   2016   1000  1.88E-02  4.00E+01
 alltoallv: intrinsic, mpi_size, nword, wt, kB =  T   2016  10000  3.36E-02  4.00E+02
 alltoall: intrinsic, mpi_size, nword, wt, MB, ok =  T   2016      1  1.13E-02  8.06E-03  T
 alltoall: intrinsic, mpi_size, nword, wt, MB, ok =  T   2016     10  4.17E-03  8.06E-02  T
Application 5564451 resources: utime ~13109s, stime ~40386s, Rss ~18128, inblocks ~1216790, outblocks ~1772116
Sat Aug 16 15:38:27 CEST 2014
 Using Mpi_Issend/Irecv
 test_alltoallv: $Id: a2a.o1086869,v 1.1 2014/08/16 14:11:40 aake Exp $
 alltoallv: intrinsic, mpi_size, nword, wt, kB =  F   4032   1000  1.58E-02  4.00E+01
 alltoallv: intrinsic, mpi_size, nword, wt, kB =  F   4032  10000  1.05E-02  4.00E+02
 0.46353411674499512
 29.301285982131958
 29.302078008651733
 alltoall: intrinsic, mpi_size, nword, wt, MB, ok =  F   4032      1  2.93E+01  1.61E-02  T
 9.6448321342468262
 9.7946610450744629
 9.7952229976654053
 alltoall: intrinsic, mpi_size, nword, wt, MB, ok =  F   4032     10  9.80E+00  1.61E-01  T
 Using MPI_Alltoall[v]
 test_alltoallv: $Id: a2a.o1086869,v 1.1 2014/08/16 14:11:40 aake Exp $
 alltoallv: intrinsic, mpi_size, nword, wt, kB =  T   4032   1000  1.57E-02  4.00E+01
 alltoallv: intrinsic, mpi_size, nword, wt, kB =  T   4032  10000  5.00E-02  4.00E+02
 alltoall: intrinsic, mpi_size, nword, wt, MB, ok =  T   4032      1  5.11E-02  1.61E-02  T
 alltoall: intrinsic, mpi_size, nword, wt, MB, ok =  T   4032     10  1.14E-02  1.61E-01  T
Application 5564452 resources: utime ~59497s, stime ~101635s, Rss ~26080, inblocks ~2455840, outblocks ~3544057
Sat Aug 16 15:39:11 CEST 2014
 Using Mpi_Issend/Irecv
 test_alltoallv: $Id: a2a.o1086869,v 1.1 2014/08/16 14:11:40 aake Exp $
 alltoallv: intrinsic, mpi_size, nword, wt, kB =  F   8064   1000  1.94E-02  4.00E+01
 alltoallv: intrinsic, mpi_size, nword, wt, kB =  F   8064  10000  1.37E-02  4.00E+02
 7.22968578338623047E-2
 146.20563697814941
 146.20641279220581
 alltoall: intrinsic, mpi_size, nword, wt, MB, ok =  F   8064      1  1.46E+02  3.23E-02  T
 47.554581880569458
 48.170247077941895
 48.17109203338623
 alltoall: intrinsic, mpi_size, nword, wt, MB, ok =  F   8064     10  4.82E+01  3.23E-01  T
 Using MPI_Alltoall[v]
 test_alltoallv: $Id: a2a.o1086869,v 1.1 2014/08/16 14:11:40 aake Exp $
 alltoallv: intrinsic, mpi_size, nword, wt, kB =  T   8064   1000  5.81E-02  4.00E+01
 alltoallv: intrinsic, mpi_size, nword, wt, kB =  T   8064  10000  1.18E-01  4.00E+02
 alltoall: intrinsic, mpi_size, nword, wt, MB, ok =  T   8064      1  2.68E-02  3.23E-02  T
 alltoall: intrinsic, mpi_size, nword, wt, MB, ok =  T   8064     10  2.41E-02  3.23E-01  T
Application 5564453 resources: utime ~288007s, stime ~1286879s, Rss ~42620, inblocks ~4884180, outblocks ~7094157
Sat Aug 16 15:42:32 CEST 2014
 Using Mpi_Issend/Irecv
 test_alltoallv: $Id: a2a.o1086869,v 1.1 2014/08/16 14:11:40 aake Exp $
 alltoallv: intrinsic, mpi_size, nword, wt, kB =  F  16128   1000  3.29E-02  4.00E+01
 alltoallv: intrinsic, mpi_size, nword, wt, kB =  F  16128  10000  1.97E-02  4.00E+02
 12.790431976318359
 64.587737083435059
 64.589250087738037
 alltoall: intrinsic, mpi_size, nword, wt, MB, ok =  F  16128      1  6.46E+01  6.45E-02  T
 209.9188711643219
 211.62938213348389
 211.63277411460876
 alltoall: intrinsic, mpi_size, nword, wt, MB, ok =  F  16128     10  2.12E+02  6.45E-01  T
 Using MPI_Alltoall[v]
 test_alltoallv: $Id: a2a.o1086869,v 1.1 2014/08/16 14:11:40 aake Exp $
 alltoallv: intrinsic, mpi_size, nword, wt, kB =  T  16128   1000  2.30E-01  4.00E+01
 alltoallv: intrinsic, mpi_size, nword, wt, kB =  T  16128  10000  3.57E-01  4.00E+02
 alltoall: intrinsic, mpi_size, nword, wt, MB, ok =  T  16128      1  8.22E-02  6.45E-02  T
 alltoall: intrinsic, mpi_size, nword, wt, MB, ok =  T  16128     10  2.56E-01  6.45E-01  T
Application 5564454 resources: utime ~1484523s, stime ~3000150s, Rss ~74912, inblocks ~10022431, outblocks ~14189114
Sat Aug 16 15:47:24 CEST 2014
