      0.00000  1.24159e+07      0.00000  1.29559e+07      0.00000  1.34180e+07
      0.00000  1.33960e+07      0.00000  1.31936e+07      0.00000  1.29028e+07
      0.00000  1.06144e+07
   0.00157584  1.20604e+07   0.00316464  1.23009e+07   0.00302893  1.30849e+07
   0.00338089  1.30617e+07   0.00363534  1.31018e+07   0.00318108  1.25671e+07
   0.00238919  1.09386e+07
   0.00789457  1.00001e+07    0.0109759  9.24024e+06   0.00972637  1.02254e+07
    0.0123283  9.26817e+06   0.00872653  1.08316e+07   0.00863281  9.67100e+06
   0.00750325  8.99453e+06
    0.0163887  7.82969e+06    0.0164638  7.22660e+06    0.0155550  7.50988e+06
    0.0172545  6.87659e+06    0.0122899  9.12650e+06    0.0122668  7.71853e+06
    0.0100002  7.06236e+06
    0.0217481  6.26023e+06    0.0198010  5.74526e+06    0.0187528  5.66128e+06
    0.0203451  5.07080e+06    0.0143376  8.16440e+06    0.0149704  6.28031e+06
    0.0114983  5.83322e+06
    0.0248429  5.09063e+06    0.0220222  4.49106e+06    0.0206776  4.23947e+06
    0.0222404  3.79164e+06    0.0180547  6.42009e+06    0.0168910  5.23186e+06
    0.0129965  4.48072e+06
    0.0266893  4.16571e+06    0.0232191  3.60049e+06    0.0217275  3.27347e+06
    0.0235808  2.83625e+06    0.0204978  5.33424e+06    0.0188101  4.32656e+06
    0.0138295  3.53818e+06
    0.0289816  3.48509e+06    0.0244159  3.13334e+06    0.0228558  2.71142e+06
    0.0250749  2.27975e+06    0.0238756  4.46520e+06    0.0211130  3.54448e+06
    0.0148034  3.03799e+06
    0.0465795  2.16541e+06    0.0398660  1.91232e+06    0.0236220  1.90553e+06
    0.0286009  1.82799e+06    0.0253229  4.27337e+06    0.0255284  2.82948e+06
    0.0184318  2.37576e+06
    0.0827392  2.18556e+06    0.0754267  1.92774e+06    0.0587806  1.79791e+06
    0.0502608  1.84528e+06    0.0476646  3.60360e+06    0.0459506  2.06557e+06
    0.0455147  2.07229e+06
     0.144341  2.26578e+06     0.129180  1.99838e+06     0.107280  1.92813e+06
    0.0981653  1.88344e+06    0.0894509  3.03401e+06    0.0887354  1.89329e+06
    0.0838868  1.97701e+06
     0.195058  2.39687e+06     0.182929  2.08654e+06     0.156611  2.04679e+06
     0.142253  1.87641e+06     0.133725  2.47198e+06     0.128305  1.81798e+06
     0.119267  1.90321e+06
     0.244801  2.54767e+06     0.229350  2.17110e+06     0.199348  2.11166e+06
     0.184830  1.86691e+06     0.167571  1.70145e+06     0.169010  1.79302e+06
     0.154879  1.89487e+06
     0.285978  2.65309e+06     0.273327  2.24408e+06     0.244601  2.14859e+06
     0.230438  1.85971e+06     0.217564  1.64933e+06     0.209560  1.76657e+06
     0.190453  1.95403e+06
     0.409234  2.80096e+06     0.318576  2.30681e+06     0.271729  2.12424e+06
     0.273015  1.85272e+06     0.261628  1.63694e+06     0.249205  1.74452e+06
     0.228059  1.93077e+06
     0.446431  2.80917e+06     0.365485  2.34464e+06     0.274450  2.77228e+06
     0.317103  1.84560e+06     0.302444  1.62743e+06     0.290849  1.72546e+06
     0.264910  1.85905e+06
     0.478315  2.78144e+06     0.403014  2.36637e+06     0.278276  4.00526e+06
     0.359680  1.83434e+06     0.345661  1.61512e+06     0.334710  1.70352e+06
     0.302241  1.78155e+06
     0.487614  2.92587e+06     0.442105  2.37961e+06     0.284786  5.25375e+06
     0.406569  1.82700e+06     0.387335  1.60540e+06     0.374323  1.68858e+06
     0.341229  1.71101e+06
     0.496913  3.56637e+06     0.485889  2.38772e+06     0.331246  6.06428e+06
     0.453278  1.81838e+06     0.432097  1.59647e+06     0.420971  1.66625e+06
     0.380216  1.66029e+06
     0.526139  4.31393e+06     0.524981  2.44872e+06     0.373506  6.21814e+06
     0.496094  1.81255e+06     0.479945  1.58209e+06     0.464763  1.64321e+06
     0.423792  1.63699e+06
     0.575187  4.45899e+06     0.572289  4.71981e+06     0.419018  6.39475e+06
     0.542803  1.80390e+06     0.524706  1.57175e+06     0.479615  1.63641e+06
     0.466575  4.51259e+06
     0.616330  4.27767e+06     0.614027  4.98230e+06     0.507473  6.20700e+06
     0.597290  1.79461e+06     0.574097  1.55707e+06     0.560912  1.59680e+06
     0.523854  7.42650e+06
     0.717298  4.08112e+06     0.744897  4.42264e+06     0.607397  5.98256e+06
     0.640106  1.78747e+06     0.628119  1.54522e+06     0.612345  1.57411e+06
     0.575786  7.84845e+06
     0.811572  3.62845e+06     0.772639  4.33871e+06     0.702537  5.71693e+06
     0.694602  1.77278e+06     0.677233  1.53049e+06     0.670413  1.54907e+06
     0.616431  8.27330e+06
     0.854938  3.11036e+06     0.788174  4.24229e+06     0.803113  5.24757e+06
     0.741311  1.76281e+06     0.735129  1.51916e+06     0.726824  1.51729e+06
     0.675137  8.00835e+06
     0.865836  2.90334e+06     0.814804  4.05587e+06     0.905560  4.04556e+06
     0.805770  1.74886e+06     0.800937  1.49963e+06     0.786552  1.48154e+06
     0.736104  8.70341e+06
     0.876527  2.73749e+06     0.852533  3.68028e+06     0.929707  3.27123e+06
     0.855587  1.73239e+06     0.854274  1.48210e+06     0.852915  1.44641e+06
     0.803913  9.36537e+06
     0.900100  2.62571e+06     0.892480  2.75304e+06     0.942619  2.16688e+06
     0.910526  1.70539e+06     0.913052  1.46427e+06     0.914965  1.40768e+06
     0.885713  1.00517e+07
     0.919504  2.60222e+06     0.899136  2.43789e+06     0.945582  2.12429e+06
     0.935319  1.68984e+06     0.939055  1.45495e+06     0.942421  1.38935e+06
     0.921122  1.03324e+07
     0.939831  2.55457e+06     0.905793  2.33829e+06     0.953142  1.93864e+06
     0.961717  1.65940e+06     0.967194  1.44171e+06     0.969906  1.36150e+06
     0.959844  1.06763e+07
     0.951843  2.43165e+06     0.958789  2.09323e+06     0.970248  1.84440e+06
     0.976155  1.59909e+06     0.982696  1.41609e+06     0.985593  1.32870e+06
     0.981463  1.07602e+07
     0.962956  2.34167e+06     0.970385  1.95341e+06     0.984711  1.63838e+06
     0.983642  1.57683e+06     0.985911  1.36450e+06     0.992649  1.23342e+06
     0.990874  1.03546e+07
     0.967520  2.23619e+06     0.985676  1.71609e+06     0.991722  1.53939e+06
     0.992180  1.47235e+06     0.992944  1.34863e+06     0.998569  1.18219e+06
     0.997915  9.58886e+06
     0.973726  2.12853e+06     0.995684  1.61765e+06     0.997104  1.49224e+06
     0.997746  1.40536e+06     0.999070  1.26706e+06     0.999730  1.16430e+06
     0.999121  9.04900e+06
     0.981323  2.01929e+06     0.997656  1.60175e+06     0.997810  1.48669e+06
     0.999027  1.39525e+06     0.999815  1.25274e+06     0.999934  1.16064e+06
     0.999776  8.59371e+06
     0.987851  1.93098e+06     0.997979  1.60171e+06     0.998920  1.46791e+06
     0.999360  1.39520e+06     0.999873  1.25273e+06     0.999951  1.16062e+06
     0.999888  8.44456e+06
     0.993197  1.83287e+06     0.998127  1.61019e+06     0.999493  1.46024e+06
     0.999556  1.39406e+06     0.999910  1.25272e+06     0.999963  1.16403e+06
     0.999934  8.33630e+06
     0.997732  1.73085e+06     0.999757  1.58995e+06     0.999807  1.45694e+06
     0.999684  1.39293e+06     0.999937  1.25271e+06     0.999978  1.16572e+06
     0.999965  8.22561e+06
      1.00000  1.68183e+06      1.00000  1.61210e+06      1.00000  1.45475e+06
      1.00000  1.38953e+06      1.00000  1.25394e+06      1.00000  1.16839e+06
      1.00000  8.14155e+06
