     0.000000     0.000000     0.000000     0.000000     0.000000     0.000000
     0.000000     0.000000     0.000000     0.000000     0.000000     0.000000
     0.000000     0.000000     0.000000     0.000000     0.000000     0.000000
     0.000000     0.000000
     0.140841     0.000000     0.159171    0.0534362     0.157828    0.0707784
     0.147513    0.0747293     0.142712    0.0697331     0.140170    0.0584628
     0.130917    0.0306260     0.132176    0.0181683     0.106920    0.0165330
     0.139108    0.0400200
     0.335708    0.0770359     0.351648     0.145020     0.342709     0.174921
     0.334324     0.187162     0.322377     0.173095     0.318268     0.147805
     0.302443    0.0835629     0.296167    0.0510027     0.272080    0.0546035
     0.319585     0.119282
     0.498697     0.153705     0.508205     0.236677     0.499203     0.288166
     0.488755     0.301972     0.476668     0.280614     0.470250     0.242317
     0.451953     0.147217     0.439346    0.0943937     0.415629     0.107551
     0.479283     0.228372
     0.634492     0.307777     0.638769     0.351121     0.628374     0.406465
     0.618267     0.419837     0.608436     0.392806     0.599572     0.343577
     0.580679     0.224016     0.566545     0.155496     0.545585     0.184774
     0.621282     0.379509
     0.741880     0.384813     0.744955     0.480926     0.736864     0.529825
     0.726754     0.539062     0.718775     0.508505     0.711524     0.455405
     0.694004     0.322892     0.679919     0.243060     0.664078     0.301559
     0.752508     0.565499
     0.831834     0.538518     0.831776     0.610731     0.827380     0.656214
     0.819593     0.662366     0.812826     0.630958     0.806753     0.579448
     0.792064     0.449890     0.779468     0.366445     0.767621     0.468870
     0.870908     0.760281
     0.888001     0.615554     0.888309     0.709959     0.884015     0.750251
     0.878378     0.754076     0.871583     0.723673     0.867716     0.680483
     0.856572     0.567644     0.844948     0.487010     0.838793     0.621562
     0.952096     0.908112
     0.937072     0.769259     0.936819     0.816832     0.932383     0.842263
     0.930153     0.847147     0.925728     0.824958     0.922241     0.791636
     0.916119     0.713673     0.907338     0.636067     0.904345     0.772778
      1.00000      1.00000
     0.964768     0.846295     0.963673     0.885483     0.961816     0.905963
     0.959719     0.906929     0.957421     0.893651     0.956014     0.873782
     0.950626     0.819135     0.944397     0.735868     0.944173     0.866723
     -1.00000     -1.00000
     0.982801     0.923331     0.982756     0.938920     0.980983     0.950455
     0.984762     0.962637     0.986658     0.964810     0.987859     0.963124
     0.993008     0.972292     0.998121     0.981008     0.983049     0.958364
     -1.00000     -1.00000
     0.997879     0.923331     0.998643     0.992356     0.998850     0.996962
     0.998985     0.997282     0.999318     0.998182     0.998943     0.996778
     0.999433     0.997727     0.999663     0.997030     0.999757     0.999316
     -1.00000     -1.00000
      1.00000      1.00000      1.00000      1.00000      1.00000      1.00000
      1.00000      1.00000      1.00000      1.00000      1.00000      1.00000
      1.00000      1.00000      1.00000      1.00000      1.00000      1.00000
     -1.00000     -1.00000
