     0.000000     0.000000     0.000000     0.000000     0.000000     0.000000
     0.000000     0.000000     0.000000     0.000000     0.000000     0.000000
     0.000000     0.000000     0.000000     0.000000     0.000000     0.000000
     0.000000     0.000000
   0.00157583     0.000000   0.00313303     0.000000   0.00301696  0.000264002
   0.00341501  0.000268533   0.00362438  0.000295822   0.00317801  0.000160950
   0.00238298  0.000153531   0.00198078  0.000495908   0.00263872  0.000542694
     0.238532    0.0942595
   0.00789838     0.000000    0.0109480  0.000261930   0.00971460   0.00105349
    0.0123794   0.00107243   0.00872536  0.000775477   0.00862823  0.000519665
   0.00750119  0.000492880   0.00450799   0.00105655   0.00655980   0.00135674
     0.368701     0.145694
    0.0163925     0.000000    0.0164396  0.000261930    0.0155675   0.00158149
    0.0172458   0.00169815    0.0122887   0.00121921    0.0122668  0.000841328
    0.0100085  0.000692866   0.00596512   0.00154000   0.00786683   0.00160672
     0.412539     0.163016
    0.0217542     0.000000    0.0197839  0.000523859    0.0187655   0.00210950
    0.0204047   0.00232387    0.0143267   0.00151433    0.0149689   0.00117550
    0.0115004  0.000846397   0.00680752   0.00200103   0.00877928   0.00176376
     0.421974     0.166750
    0.0248482     0.000000    0.0220016  0.000523859    0.0206360   0.00263499
    0.0222829   0.00294960    0.0180487   0.00217922    0.0168880   0.00148489
    0.0129924   0.00107145   0.00728564   0.00248192   0.00956843   0.00192072
     0.423630     0.167399
    0.0266931     0.000000    0.0231985  0.000785789    0.0217221   0.00316299
    0.0236489   0.00375434    0.0204894   0.00284412    0.0188071   0.00195500
    0.0138213   0.00132143   0.00787760   0.00387240    0.0167941     0.167131
     0.424855     0.167886
    0.0289799  0.000503955    0.0243954   0.00104772    0.0228685   0.00395499
    0.0251003   0.00473811    0.0238697   0.00420983    0.0211100   0.00287066
    0.0147952   0.00198201    0.0111789    0.0184197    0.0263872     0.170145
     0.425676     0.168210
    0.0465831    0.0382502    0.0398493    0.0316511    0.0235926   0.00553649
    0.0286007   0.00777721    0.0253219   0.00494868    0.0255316   0.00577814
    0.0184214   0.00664244    0.0154365    0.0593831    0.0292725     0.173764
     0.426497     0.168536
    0.0827504     0.144942    0.0754040     0.115616    0.0587703     0.109412
    0.0502860    0.0294985    0.0476539    0.0209386    0.0459507    0.0272453
    0.0455045    0.0658170    0.0387960     0.334527    0.0469544     0.179317
     0.426914     0.168698
     0.144342     0.306997     0.129158     0.233324     0.107283     0.234378
    0.0981815    0.0745506    0.0894502    0.0594166    0.0887388    0.0735205
    0.0838807     0.152304    0.0742908     0.350061    0.0768927     0.188734
     0.427735     0.169509
     0.195057     0.410670     0.182913     0.334554     0.156580     0.336936
     0.142320     0.115312     0.133724     0.113811     0.128303     0.112656
     0.119273     0.227745     0.103911     0.363034     0.105277     0.197658
     0.429377     0.171133
     0.244811     0.482638     0.229345     0.408580     0.199360     0.414183
     0.184837     0.155091     0.167564     0.158530     0.169018     0.152646
     0.154873     0.293584     0.135558     0.376883     0.135240     0.207076
     0.431423     0.173162
     0.285975     0.526422     0.273313     0.468218     0.244615     0.491430
     0.230428     0.198176     0.217561     0.205724     0.209565     0.192413
     0.190452     0.345812     0.167274     0.390773     0.165203     0.216495
     0.451962     0.193452
     0.409236     0.622043     0.318583     0.521841     0.271707     0.539151
     0.273030     0.238670     0.261627     0.247711     0.249205     0.231388
     0.228061     0.390381     0.200879     0.405480     0.196745     0.226409
     0.467387     0.208200
     0.446441     0.646704     0.365473     0.572326     0.274422     0.544688
     0.317169     0.280862     0.302435     0.286891     0.290857     0.272553
     0.264904     0.431149     0.236328     0.421004     0.228286     0.236323
     0.481722     0.213870
     0.478323     0.667841     0.402999     0.610254     0.278284     0.548904
     0.359686     0.321981     0.345659     0.328693     0.334720     0.316242
     0.302244     0.471557     0.271800     0.436525     0.261529     0.246782
     0.496339     0.219644
     0.487624     0.674385     0.442109     0.648181     0.284801     0.552331
     0.406557     0.367480     0.387333     0.369387     0.374330     0.356034
     0.341221     0.512251     0.307249     0.452050     0.295684     0.257517
     0.512302     0.225949
     0.496906     0.677404     0.485901     0.690035     0.331262     0.567359
     0.453342     0.413248     0.432095     0.413479     0.420972     0.403286
     0.380219     0.550495     0.342698     0.467574     0.332700     0.269150
     0.528413     0.232316
     0.526136     0.680927     0.524976     0.728224     0.373499     0.580278
     0.496115     0.455528     0.479944     0.461005     0.464773     0.447978
     0.423797     0.588771     0.359956     0.477392     0.372528     0.281677
     0.545601     0.239108
     0.575179     0.685455     0.572289     0.739734     0.418995     0.593724
     0.542816     0.501921     0.524706     0.505909     0.479619     0.463184
     0.466566     0.621240     0.395770     0.552351     0.417682     0.295872
     0.562776     0.245898
     0.616323     0.689986     0.614039     0.745227     0.507452     0.620353
     0.597285     0.556628     0.574092     0.555909     0.560912     0.546987
     0.523861     0.661591     0.468490     0.725427     0.449568     0.318166
     0.579964     0.252689
     0.717292     0.702064     0.744887     0.765890     0.607373     0.653308
     0.640143     0.599982     0.628116     0.611116     0.612344     0.600438
     0.575789     0.711555     0.519990     0.793788     0.513194     0.661210
     0.595416     0.271766
     0.811573     0.718169     0.772626     0.770861     0.702528     0.688373
     0.694613     0.655761     0.677235     0.661780     0.670423     0.661128
     0.616424     0.744321     0.576181     0.845309     0.569199     0.777504
     0.629388     0.691944
     0.854947     0.731253     0.788186     0.774000     0.803114     0.731347
     0.741313     0.704121     0.735127     0.721972     0.726829     0.719900
     0.675128     0.817891     0.635171     0.884536     0.627965     0.846896
     0.656886     0.793227
     0.865843     0.737293     0.814799     0.780017     0.905569     0.793038
     0.805771     0.771967     0.800940     0.790621     0.786551     0.781690
     0.736111     0.872502     0.702905     0.918168     0.695142     0.897351
     0.684398     0.848791
     0.876528     0.744843     0.852536     0.790217     0.929705     0.818349
     0.855631     0.825512     0.854268     0.846234     0.852921     0.848047
     0.803912     0.917634     0.779382     0.946849     0.769938     0.935204
     0.713753     0.886442
     0.900108     0.766484     0.892491     0.808003     0.942618     0.839967
     0.910527     0.886297     0.913051     0.907091     0.914977     0.908576
     0.885721     0.958421     0.868631     0.972323     0.854624     0.965322
     0.746756     0.915282
     0.919498     0.786110     0.899145     0.814282     0.945574     0.845504
     0.935371     0.914633     0.939057     0.933346     0.942427     0.935264
     0.921113     0.972856     0.909635     0.981992     0.898150     0.977455
     0.781603     0.937015
     0.939830     0.808759     0.905798     0.821082     0.953177     0.861324
     0.961752     0.946098     0.967198     0.961411     0.969909     0.962299
     0.959842     0.986955     0.953486     0.991231     0.940937     0.987791
     0.819896     0.954808
     0.951841     0.824360     0.958813     0.888830     0.970253     0.900079
     0.976180     0.964513     0.982696     0.976994     0.985599     0.978211
     0.981454     0.994161     0.979168     0.996197     0.983379     0.996775
     0.866628     0.971036
     0.962949     0.841974     0.970395     0.909233     0.984734     0.940416
     0.983693     0.975418     0.985917     0.980466     0.992661     0.987318
     0.990883     0.997161     0.989368     0.998079     0.991270     0.998325
     0.921194     0.985173
     0.967523     0.852039     0.985673     0.950301     0.991734     0.965989
     0.992231     0.987217     0.992947     0.989181     0.998572     0.997092
     0.997907     0.999357     0.997564     0.999566     0.997756     0.999575
     0.944492     0.990117
     0.973730     0.869149     0.995705     0.983783     0.997104     0.987607
     0.997780     0.996067     0.999073     0.998302     0.999739     0.999431
     0.999130     0.999729     0.999567     0.999923     0.999753     0.999955
     0.971533     0.995225
     0.981321     0.895823     0.997677     0.991107     0.997828     0.990508
     0.999061     0.998302     0.999817     0.999668     0.999939     0.999864
     0.999772     0.999932     0.999863     0.999978     0.999951     0.999990
     0.987227     0.997926
     0.987855     0.924510     0.997993     0.992152     0.998914     0.995253
     0.999402     0.998928     0.999878     0.999779     0.999954     0.999901
     0.999896     0.999968     0.999909     0.999983     0.999951     0.999992
     0.993553     0.998966
     0.993197     0.953197     0.998134     0.992938     0.999517     0.997626
     0.999573     0.999195     0.999915     0.999853     0.999969     0.999926
     0.999938     0.999979     0.999932     0.999988     0.999975     0.999994
     0.998573     0.999774
     0.997732     0.982890     0.999754     0.998955     0.999819     0.999208
     0.999744     0.999464     0.999939     0.999889     0.999985     0.999963
     0.999959     0.999989     0.999954     0.999993     0.999975     0.999996
     0.999731     0.999956
      1.00000      1.00000      1.00000      1.00000      1.00000      1.00000
      1.00000      1.00000      1.00000      1.00000      1.00000      1.00000
      1.00000      1.00000      1.00000      1.00000      1.00000      1.00000
     0.999933     0.999988
     -1.00000     -1.00000     -1.00000     -1.00000     -1.00000     -1.00000
     -1.00000     -1.00000     -1.00000     -1.00000     -1.00000     -1.00000
     -1.00000     -1.00000     -1.00000     -1.00000     -1.00000     -1.00000
     0.999960     0.999992
     -1.00000     -1.00000     -1.00000     -1.00000     -1.00000     -1.00000
     -1.00000     -1.00000     -1.00000     -1.00000     -1.00000     -1.00000
     -1.00000     -1.00000     -1.00000     -1.00000     -1.00000     -1.00000
     0.999973     0.999995
     -1.00000     -1.00000     -1.00000     -1.00000     -1.00000     -1.00000
     -1.00000     -1.00000     -1.00000     -1.00000     -1.00000     -1.00000
     -1.00000     -1.00000     -1.00000     -1.00000     -1.00000     -1.00000
     0.999987     0.999997
     -1.00000     -1.00000     -1.00000     -1.00000     -1.00000     -1.00000
     -1.00000     -1.00000     -1.00000     -1.00000     -1.00000     -1.00000
     -1.00000     -1.00000     -1.00000     -1.00000     -1.00000     -1.00000
      1.00000      1.00000
