     0.000000      8.04604     0.000000      314.196     0.000000      450.744
     0.000000      579.162     0.000000      818.879     0.000000      1066.87
     0.000000      1716.60     0.000000      2624.52     0.000000      3048.25
     0.000000      3956.91
     0.140841      7.52756     0.159171      253.659     0.157828      351.560
     0.147513      454.119     0.142712      622.888     0.140170      799.669
     0.130917      1267.68     0.132176      1748.24     0.106919      2182.63
     0.139108      2492.34
     0.335707      6.83792     0.351649      195.646     0.342709      266.348
     0.334323      332.399     0.322377      450.536     0.318269      558.059
     0.302443      846.311     0.296167      1100.09     0.272080      1307.86
     0.319585      1407.96
     0.498697      6.25272     0.508205      151.813     0.499204      202.376
     0.488754      250.179     0.476668      327.024     0.470250      392.934
     0.451953      560.893     0.439344      680.409     0.415628      765.685
     0.479283      740.397
     0.634492      5.69492     0.638771      118.544     0.628372      153.518
     0.618265      184.429     0.608437      230.457     0.599572      273.212
     0.580680      357.215     0.566544      399.889     0.545586      418.225
     0.621282      345.170
     0.741879      5.20191     0.744956      90.5566     0.736867      114.868
     0.726752      135.108     0.718775      160.750     0.711523      182.532
     0.694004      219.644     0.679919      216.486     0.664077      188.934
     0.752508      198.939
     0.831834      4.71424     0.831778      69.7236     0.827379      85.3631
     0.819591      96.7810     0.812827      109.114     0.806752      117.655
     0.792064      124.784     0.779467      107.078     0.767623      69.7734
     0.870908      114.150
     0.888002      4.39016     0.888311      4.71398     0.884019      67.4948
     0.878377      74.2763     0.871583      81.0550     0.867715      83.5950
     0.856573      78.8806     0.844947      52.5146     0.838793      30.6507
     0.952096      75.9447
     0.937071      4.07841     0.936819      4.33867     0.932384      53.2942
     0.930152      56.2458     0.925728      58.2438     0.922241      57.3469
     0.916119      45.0371     0.907337      21.8560     0.904346      18.3734
      1.00000      10.0920
     0.964768      3.90204     0.963677      4.14480     0.961818      45.5124
     0.959714      47.0262     0.957421      46.5533     0.956014      43.6375
     0.950625      30.3941     0.944397      2.51674     0.944173      13.7556
     -1.00000      1.00000
     0.982801      3.80495     0.982759      4.03575     0.980986      41.6514
     0.984755      41.7081     0.986659      38.8213     0.987860      34.4009
     0.993007      18.3667     0.998120      1.54856     0.983050      9.63299
     -1.00000      1.00000
     0.997878      3.96297     0.998645      4.24925     0.998853      48.1327
     0.998986      48.2659     0.999319      46.2562     0.998944      38.6750
     0.999432      20.5854     0.999661      1.57114     0.999758      11.8648
     -1.00000      1.00000
      1.00000      4.17633      1.00000      48.3359      1.00000      55.5060
      1.00000      55.1417      1.00000      51.9003      1.00000      47.5740
      1.00000      23.9817      1.00000      1.60714      1.00000      13.7117
     -1.00000      1.00000
